sem_3/verilog/lab_07/regop_tb.vcd
$date
	Fri Oct 27 12:37:40 2023
$end
$version
	Icarus Verilog
$end
$timescale
	1ns
$end
$scope module regop_tb $end
$var wire 4 ! A [3:0] $end
$var parameter 32 " timeout $end
$var reg 4 # I [3:0] $end
$var reg 1 $ clk $end
$var reg 1 % load $end
$var reg 1 & serial $end
$var reg 1 ' shift $end
$var integer 32 ( i [31:0] $end
$scope module uut $end
$var wire 4 ) I [3:0] $end
$var wire 1 $ clk $end
$var wire 1 % load $end
$var wire 1 & serial $end
$var wire 1 ' shift $end
$var wire 4 * y [3:0] $end
$var wire 2 + select [1:0] $end
$var wire 4 , A [3:0] $end
$scope module d0 $end
$var wire 1 $ clk $end
$var wire 1 - d $end
$var reg 1 . q $end
$upscope $end
$scope module d1 $end
$var wire 1 $ clk $end
$var wire 1 / d $end
$var reg 1 0 q $end
$upscope $end
$scope module d2 $end
$var wire 1 $ clk $end
$var wire 1 1 d $end
$var reg 1 2 q $end
$upscope $end
$scope module d3 $end
$var wire 1 $ clk $end
$var wire 1 3 d $end
$var reg 1 4 q $end
$upscope $end
$scope module m0 $end
$var wire 2 5 s [1:0] $end
$var wire 4 6 w [3:0] $end
$var reg 1 7 f $end
$upscope $end
$scope module m1 $end
$var wire 2 8 s [1:0] $end
$var wire 4 9 w [3:0] $end
$var reg 1 : f $end
$upscope $end
$scope module m2 $end
$var wire 2 ; s [1:0] $end
$var wire 4 < w [3:0] $end
$var reg 1 = f $end
$upscope $end
$scope module m3 $end
$var wire 2 > s [1:0] $end
$var wire 4 ? w [3:0] $end
$var reg 1 @ f $end
$upscope $end
$upscope $end
$upscope $end
$enddefinitions $end
$comment Show the parameter values. $end
$dumpall
b111110100 "
$end
#0
$dumpvars
x@
bx0xx ?
bx >
x=
bx0xx <
bx ;
x:
bx0xx 9
bx 8
x7
bx0xx 6
bx 5
x4
x3
x2
x1
x0
x/
x.
x-
bx ,
bx +
bx *
b0 )
b0 (
x'
x&
x%
0$
b0 #
bx !
$end
#20
bx1xx 6
b1 #
b1 )
b1 (
1$
#40
bx0xx 6
bx1xx 9
b10 #
b10 )
b10 (
0$
#60
bx1xx 6
b11 #
b11 )
b11 (
1$
#80
bx0xx 6
bx0xx 9
bx1xx <
b100 #
b100 )
b100 (
0$
#100
bx1xx 6
b101 #
b101 )
b101 (
1$
#120
bx0xx 6
bx1xx 9
b110 #
b110 )
b110 (
0$
#140
bx1xx 6
b111 #
b111 )
b111 (
1$
#160
bx0xx 6
bx0xx 9
bx0xx <
bx1xx ?
b1000 #
b1000 )
b1000 (
0$
#180
bx1xx 6
b1001 #
b1001 )
b1001 (
1$
#200
bx0xx 6
bx1xx 9
b1010 #
b1010 )
b1010 (
0$
#220
bx1xx 6
b1011 #
b1011 )
b1011 (
1$
#240
bx0xx 6
bx0xx 9
bx1xx <
b1100 #
b1100 )
b1100 (
0$
#260
bx1xx 6
b1101 #
b1101 )
b1101 (
1$
#280
bx0xx 6
bx1xx 9
b1110 #
b1110 )
b1110 (
0$
#300
bx1xx 6
b1111 #
b1111 )
b1111 (
1$
#320
b10000 (
0$
